…
  #commision arrived
  mutate(regime = if_else(Date < ymd(18550401), "1", "2"),
         regime = factor(regime,
                         levels = c("1", "2"),
                         labels = c("Before Sanitation",
                                    "After Sanitation"))) %>% 
  #Now reshape to long format
  pivot_longer(cols = Disease:Other, names_to = "cause",
               values_to = "n") %>%
  #tidy up
  clean_names -> my_night
my_night
```

    ## # A tibble: 72 x 4
    ##    date       regime            cause       n
    ##    <date>     <fct>             <chr>   <int>
    ##  1 1854-04-01 Before Sanitation Disease     1
    ##  2 1854-04-01 Before Sanitation Wounds      0
    ##  3 1854-04-01 Before Sanitation Other       5
    ##  4 1854-05-01 Before Sanitation Disease    12
    ##  5 1854-05-01 Before Sanitation Wounds      0
    ##  6 1854-05-01 Before Sanitation Other       9
    ##  7 1854-06-01 Before Sanitation Disease    11
    ##  8 1854-06-01 Before Sanitation Wounds      0
    ##  9 1854-06-01 Before Sanitation Other       6
    ## 10 1854-07-01 Before Sanitation Disease   359
    ## # … with 62 more rows
…
